-------------------------------------------------------------------------------
Test set: br.com.testeyaman.api.BaseTest
-------------------------------------------------------------------------------
Tests run: 0, Failures: 0, Errors: 0, Skipped: 0, Time elapsed: 0.826 sec
